{
  "project_info": {
    "project_number": "645088438716",
    "project_id": "edutex-48d42",
    "storage_bucket": "edutex-48d42.appspot.com"
  },
  "client": [
    {
      "client_info": {
        "mobilesdk_app_id": "1:645088438716:android:79f25c384d90f2746423b9",
        "android_client_info": {
          "package_name": "de.dipf.edutec.edutex.androidclient"
        }
      },
      "oauth_client": [
        {
          "client_id": "645088438716-rvks3se330csr5f9qtc6legujkkjljnb.apps.googleusercontent.com",
          "client_type": 3
        }
      ],
      "api_key": [
        {
          "current_key": "AIzaSyAVlgjd9pbrUuYNnr-8-5tSYhJiQadudxo"
        }
      ],
      "services": {
        "appinvite_service": {
          "other_platform_oauth_client": [
            {
              "client_id": "645088438716-rvks3se330csr5f9qtc6legujkkjljnb.apps.googleusercontent.com",
              "client_type": 3
            }
          ]
        }
      }
    }
  ],
  "configuration_version": "1"
}